…
# Exploratory Data Analysis

For this analysis we are going to the popular Ames housing dataset. This
dataset contains information on home values for a sample of nearly 3,000
houses in Ames, Iowa in the early 2000s.

``` r
(ames <- make_ordinal_ames())
```

    # A tibble: 2,930 × 81
       MS_SubClass            MS_Zoning Lot_Frontage Lot_Area Street Alley Lot_Shape
       <fct>                  <fct>            <dbl>    <int> <fct>  <fct> <ord>    
     1 One_Story_1946_and_Ne… Resident…          141    31770 Pave   No_A… Slightly…
     2 One_Story_1946_and_Ne… Resident…           80    11622 Pave   No_A… Regular  
     3 One_Story_1946_and_Ne… Resident…           81    14267 Pave   No_A… Slightly…
     4 One_Story_1946_and_Ne… Resident…           93    11160 Pave   No_A… Regular  
     5 Two_Story_1946_and_Ne… Resident…           74    13830 Pave   No_A… Slightly…
     6 Two_Story_1946_and_Ne… Resident…           78     9978 Pave   No_A… Slightly…
     7 One_Story_PUD_1946_an… Resident…           41     4920 Pave   No_A… Regular  
     8 One_Story_PUD_1946_an… Resident…           43     5005 Pave   No_A… Slightly…
     9 One_Story_PUD_1946_an… Resident…           39     5389 Pave   No_A… Slightly…
    10 Two_Story_1946_and_Ne… Resident…           60     7500 Pave   No_A… Regular  
    # ℹ 2,920 more rows
    # ℹ 74 more variables: Land_Contour <ord>, Utilities <ord>, Lot_Config <fct>,
    #   Land_Slope <ord>, Neighborhood <fct>, Condition_1 <fct>, Condition_2 <fct>,
    #   Bldg_Type <fct>, House_Style <fct>, Overall_Qual <ord>, Overall_Cond <ord>,
    #   Year_Built <int>, Year_Remod_Add <int>, Roof_Style <fct>, Roof_Matl <fct>,
    #   Exterior_1st <fct>, Exterior_2nd <fct>, Mas_Vnr_Type <fct>,
    #   Mas_Vnr_Area <dbl>, Exter_Qual <ord>, Exter_Cond <ord>, Foundation <fct>, …
…
